…
    ## {html_document}
    ## <html lang="en">
    ## [1] <head>\n<link rel="P3Pv1" href="http://www.samhsa.gov/w3c/p3p.xml">\n<tit ...
    ## [2] <body>\r\n\r\n<noscript>\r\n<p>Your browser's Javascript is off. Hyperlin ...

Get the pieces I actuslly need

``` r
drug_use_html |>
  html_table() |>
  first()
```

    ## # A tibble: 57 × 16
    ##    State     `12+(2013-2014)` `12+(2014-2015)` `12+(P Value)` `12-17(2013-2014)`
    ##    <chr>     <chr>            <chr>            <chr>          <chr>             
    ##  1 "NOTE: S… "NOTE: State an… "NOTE: State an… "NOTE: State … "NOTE: State and …
    ##  2 "Total U… "12.90a"         "13.36"          "0.002"        "13.28b"          
    ##  3 "Northea… "13.88a"         "14.66"          "0.005"        "13.98"           
    ##  4 "Midwest" "12.40b"         "12.76"          "0.082"        "12.45"           
    ##  5 "South"   "11.24a"         "11.64"          "0.029"        "12.02"           
    ##  6 "West"    "15.27"          "15.62"          "0.262"        "15.53a"          
    ##  7 "Alabama" "9.98"           "9.60"           "0.426"        "9.90"            
    ##  8 "Alaska"  "19.60a"         "21.92"          "0.010"        "17.30"           
    ##  9 "Arizona" "13.69"          "13.12"          "0.364"        "15.12"           
    ## 10 "Arkansa… "11.37"          "11.59"          "0.678"        "12.79"           
    ## # ℹ 47 more rows
    ## # ℹ 11 more variables: `12-17(2014-2015)` <chr>, `12-17(P Value)` <chr>,
    ## #   `18-25(2013-2014)` <chr>, `18-25(2014-2015)` <chr>, `18-25(P Value)` <chr>,
    ## #   `26+(2013-2014)` <chr>, `26+(2014-2015)` <chr>, `26+(P Value)` <chr>,
    ## #   `18+(2013-2014)` <chr>, `18+(2014-2015)` <chr>, `18+(P Value)` <chr>

``` r
table_marj = 
  drug_use_html |> 
  html_table() |> 
  first() |>
  slice(-1) 

table_marj
```

    ## # A tibble: 56 × 16
    ##    State     `12+(2013-2014)` `12+(2014-2015)` `12+(P Value)` `12-17(2013-2014)`
    ##    <chr>     <chr>            <chr>            <chr>          <chr>             
    ##  1 Total U.… 12.90a           13.36            0.002          13.28b            
    ##  2 Northeast 13.88a           14.66            0.005          13.98             
    ##  3 Midwest   12.40b           12.76            0.082          12.45             
    ##  4 South     11.24a           11.64            0.029          12.02             
    ##  5 West      15.27            15.62            0.262          15.53a            
    ##  6 Alabama   9.98             9.60             0.426          9.90              
    ##  7 Alaska    19.60a           21.92            0.010          17.30             
    ##  8 Arizona   13.69            13.12            0.364          15.12             
    ##  9 Arkansas  11.37            11.59            0.678          12.79             
    ## 10 Californ… 14.49            15.25            0.103          15.03             
    ## # ℹ 46 more rows
    ## # ℹ 11 more variables: `12-17(2014-2015)` <chr>, `12-17(P Value)` <chr>,
    ## #   `18-25(2013-2014)` <chr>, `18-25(2014-2015)` <chr>, `18-25(P Value)` <chr>,
    ## #   `26+(2013-2014)` <chr>, `26+(2014-2015)` <chr>, `26+(P Value)` <chr>,
    ## #   `18+(2013-2014)` <chr>, `18+(2014-2015)` <chr>, `18+(P Value)` <chr>
…
